<?xml version="1.0" encoding="UTF-8"?>
<svg width="66px" height="66px" viewBox="0 0 66 66" version="1.1" xmlns="http://www.w3.org/2000/svg" xmlns:xlink="http://www.w3.org/1999/xlink">
    <!-- Generator: Sketch 56 (81588) - https://sketch.com -->
    <title>odnoklassniki-logo</title>
    <desc>Created with Sketch.</desc>
    <g id="Page-1" stroke="none" stroke-width="1" fill="none" fill-rule="evenodd">
        <g id="Artboard" transform="translate(-334.000000, -124.000000)" fill="#FFFFFF" fill-rule="nonzero">
            <g id="odnoklassniki-logo" transform="translate(334.000000, 124.000000)">
                <path d="M33.0358085,26.3930397 C36.7198723,26.3810426 39.6540638,23.4229787 39.6407687,19.7304894 C39.6259787,16.038 36.6868723,13.0967872 33.0014043,13.0939756 C29.2850426,13.0904681 26.3171489,16.0843404 26.3459362,19.8105319 C26.3733191,23.4889787 29.3405106,26.4084255 33.0358085,26.3930397 Z" id="Path"></path>
                <path d="M10,0 L56,0 C61.5228475,-1.01453063e-15 66,4.4771525 66,10 L66,56 C66,61.5228475 61.5228475,66 56,66 L10,66 C4.4771525,66 6.76353751e-16,61.5228475 0,56 L0,10 C-6.76353751e-16,4.4771525 4.4771525,1.01453063e-15 10,0 Z M33.0561702,6.15478879 C25.5574468,6.13238298 19.464383,12.1924468 19.4199316,19.7115319 C19.3780213,27.1491702 25.4668723,33.3047234 32.8925745,33.3300794 C40.3927021,33.3552766 46.5222766,27.3394468 46.5624691,19.9179574 C46.5995106,12.320234 40.568234,6.17380851 33.0561702,6.15478879 Z M48.273383,38.6675745 C49.3574681,37.5554043 49.3694043,36.156766 48.4868298,34.7265319 C47.7158936,33.4711277 46.3804468,32.945234 44.9445957,33.3138511 C44.2059574,33.500617 43.5691277,33.8769574 42.9744255,34.331234 C36.9635106,38.373383 28.7366809,38.2589362 22.7489362,34.1444681 C22.4554468,33.9415532 22.1493191,33.7512766 21.8270426,33.6003191 C20.1665106,32.8174468 18.5670638,33.1839574 17.616383,34.5474894 C16.5035106,36.1420213 16.6446383,37.6874043 18.0502979,39.0382979 C18.4154043,39.3879574 18.8275532,39.6898723 19.2256596,40.0023191 C22.4378936,42.5159362 26.1914681,43.5396383 30.354383,43.9742553 C30.0601915,44.2888085 29.8720213,44.505766 29.6691064,44.7079787 C26.6162553,47.7685532 23.5648085,50.831234 20.5063404,53.8861915 C19.8737234,54.5181064 19.4201489,55.2216383 19.3752128,56.1428298 C19.3099149,57.5070638 20.1538723,58.8628723 21.4822979,59.5067234 C22.7341915,60.1126596 24.0155745,59.922383 25.0933404,58.8593617 C27.4925106,56.4938936 29.876234,54.114383 32.2234468,51.6976596 C32.8118298,51.0917234 33.132,50.9618298 33.7969149,51.6583404 C36.0816383,54.048383 38.4597447,56.352766 40.793617,58.701383 C41.4016596,59.3129362 42.0869362,59.7503617 42.966,59.8121489 C44.3548085,59.9076383 45.7695957,59.0208511 46.4022128,57.6692553 C46.9814681,56.4342128 46.7595957,55.1177234 45.710617,54.0568085 C42.6289787,50.940766 39.5241702,47.8464894 36.432,44.7395745 C36.2185532,44.522617 36.0563617,44.340766 35.7123191,43.9658298 C37.9900213,43.6934043 40.2908936,43.2819574 42.3909574,42.4702979 C44.6124894,41.607383 46.6121489,40.3744468 48.273383,38.6675745 Z" id="Shape"></path>
            </g>
        </g>
    </g>
</svg>