<?xml version="1.0" encoding="UTF-8"?>
<svg width="66px" height="66px" viewBox="0 0 66 66" version="1.1" xmlns="http://www.w3.org/2000/svg" xmlns:xlink="http://www.w3.org/1999/xlink">
    <!-- Generator: Sketch 56 (81588) - https://sketch.com -->
    <title>VK</title>
    <desc>Created with Sketch.</desc>
    <g id="Page-1" stroke="none" stroke-width="1" fill-rule="evenodd">
        <g id="Artboard" transform="translate(-253.000000, -124.000000)" fill-rule="nonzero">
            <path d="M263,124 L309,124 C314.522847,124 319,128.477153 319,134 L319,180 C319,185.522847 314.522847,190 309,190 L263,190 C257.477153,190 253,185.522847 253,180 L253,134 C253,128.477153 257.477153,124 263,124 Z M305.567596,161.172745 C303.947085,159.589447 303.841766,158.671064 305.146319,156.842723 C306.570234,154.849383 308.101574,152.93117 309.536021,150.94766 C310.878489,149.092638 312.251149,147.24183 312.956085,145.021 C313.40334,143.606915 313.006638,142.983426 311.558851,142.73417 C311.308191,142.692745 311.049106,142.689936 310.79634,142.689936 L302.198085,142.680809 C301.139277,142.663957 300.553702,143.125957 300.179468,144.064702 C299.673936,145.333447 299.152255,146.601489 298.550532,147.825298 C297.183489,150.600809 295.658468,153.283638 293.518383,155.555021 C293.046553,156.05634 292.523468,156.688957 291.734979,156.428468 C290.749191,156.068979 290.459915,154.442851 290.47466,153.893787 L290.466234,143.970617 C290.274553,142.553021 289.961404,141.921106 288.552936,141.645872 L279.62117,141.647277 C278.430362,141.647277 277.830745,142.107872 277.194617,142.853532 C276.828106,143.283936 276.717872,143.563383 277.471957,143.706617 C278.953447,143.987468 279.790383,144.947277 280.011553,146.432979 C280.365426,148.808277 280.340851,151.192702 280.13583,153.577128 C280.076851,154.273638 279.957489,154.965936 279.681553,155.617511 C279.249745,156.639106 278.55183,156.846234 277.636255,156.217128 C276.807745,155.647702 276.224979,154.843766 275.654149,154.038426 C273.51266,151.012255 271.802277,147.748766 270.408553,144.318872 C270.006234,143.328872 269.31183,142.727851 268.261447,142.711702 C265.683936,142.670277 263.103617,142.663255 260.522596,142.714511 C258.971596,142.743298 258.508894,143.496681 259.141511,144.904447 C261.950021,151.154085 265.077298,157.229596 269.160872,162.764468 C271.256021,165.602468 273.660809,168.111872 276.770532,169.888255 C280.293106,171.901255 284.085298,172.507894 288.080404,172.319723 C289.95017,172.233362 290.511872,171.746787 290.599638,169.882638 C290.657213,168.606872 290.802553,167.337426 291.43166,166.192957 C292.050234,165.068851 292.98617,164.855404 294.063234,165.554723 C294.601064,165.905787 295.056043,166.350234 295.485043,166.822766 C296.537532,167.972149 297.552809,169.160149 298.644617,170.273021 C300.01517,171.668149 301.639894,172.489638 303.680277,172.32183 L311.583426,172.323936 C312.857085,172.240383 313.517085,170.679553 312.78617,169.258447 C312.272915,168.262128 311.598872,167.377447 310.884106,166.520851 C309.268511,164.580872 307.366447,162.928064 305.567596,161.172745 Z" id="VK"></path>
        </g>
    </g>
</svg>
